,Width##LENGTH##INCHES,Height##LENGTH##INCHES,Designation##OTHER##,Type Comments##OTHER##,. . Lights Wide##OTHER##,. . Lights High##OTHER##,Fractional Lights Wide##OTHER##,Fractional Lights High##OTHER##
"35-1/2"" x 23-1/2""",35.5,23.5,100CD1620-2,Fibrex casement window,2,2,2,2
"35-1/2"" x 29-1/2""",35.5,29.5,100CD1626-2,Fibrex casement window,2,2,2,2
"35-1/2"" x 35-1/2""",35.5,35.5,100CD1630-2,Fibrex casement window,2,3,2,3
"35-1/2"" x 41-1/2""",35.5,41.5,100CD1636-2,Fibrex casement window,2,3,2,3
"35-1/2"" x 47-1/2""",35.5,47.5,100CD1640-2,Fibrex casement window,2,4,2,4
"35-1/2"" x 53-1/2""",35.5,53.5,100CD1646-2,Fibrex casement window,2,4,2,4
"35-1/2"" x 59-1/2""",35.5,59.5,100CD1650-2,Fibrex casement window,2,4,2,4
"35-1/2"" x 65-1/2""",35.5,65.5,100CD1656-2,Fibrex casement window,2,4,2,4
"35-1/2"" x 71-1/2""",35.5,71.5,100CD1660-2,Fibrex casement window,2,4,2,4
"41-1/2"" x 23-1/2""",41.5,23.5,100CD1920-2,Fibrex casement window,2,2,2,2
"41-1/2"" x 29-1/2""",41.5,29.5,100CD1926-2,Fibrex casement window,2,2,2,2
"41-1/2"" x 35-1/2""",41.5,35.5,100CD1930-2,Fibrex casement window,2,3,2,3
"41-1/2"" x 41-1/2""",41.5,41.5,100CD1936-2,Fibrex casement window,2,3,2,3
"41-1/2"" x 47-1/2""",41.5,47.5,100CD1940-2,Fibrex casement window,2,4,2,4
"41-1/2"" x 53-1/2""",41.5,53.5,100CD1946-2,Fibrex casement window,2,4,2,4
"41-1/2"" x 59-1/2""",41.5,59.5,100CD1950-2,Fibrex casement window,2,4,2,4
"41-1/2"" x 65-1/2""",41.5,65.5,100CD1956-2,Fibrex casement window,2,4,2,4
"41-1/2"" x 71-1/2""",41.5,71.5,100CD1960-2,Fibrex casement window,2,4,2,4
"47-1/2"" x 23-1/2""",47.5,23.5,100CD2020-2,Fibrex casement window,2,2,2,2
"47--1/2"" x 29-1/2""",47.5,29.5,100CD2026-2,Fibrex casement window,2,2,2,2
"47--1/2"" x 35-1/2""",47.5,35.5,100CD2030-2,Fibrex casement window,2,3,2,3
"47--1/2"" x 41-1/2""",47.5,41.5,100CD2036-2,Fibrex casement window,2,3,2,3
"47--1/2"" x 47-1/2""",47.5,47.5,100CD2040-2,Fibrex casement window,2,4,2,4
"47--1/2"" x 53-1/2""",47.5,53.5,100CD2046-2,Fibrex casement window,2,4,2,4
"47--1/2"" x 59-1/2""",47.5,59.5,100CD2050-2,Fibrex casement window,2,4,2,4
"47--1/2"" x 65-1/2""",47.5,65.5,100CD2056-2,Fibrex casement window,2,4,2,4
"47--1/2"" x 71-1/2""",47.5,71.5,100CD2060-2,Fibrex casement window,2,4,2,4
"53-1/2"" x 23-1/2""",53.5,23.5,100C2320-2,Fibrex casement window,3,2,3,2
"53-1/2"" x 29-1/2""",53.5,29.5,100CD2326-2,Fibrex casement window,3,2,3,2
"53-1/2"" x 35-1/2""",53.5,35.5,100CD2330-2,Fibrex casement window,3,3,3,3
"53-1/2"" x 41-1/2""",53.5,41.5,100CD2336-2,Fibrex casement window,3,3,3,3
"53-1/2"" x 47-1/2""",53.5,47.5,100CD2340-2,Fibrex casement window,3,4,3,4
"53-1/2"" x 53-1/2""",53.5,53.5,100CD2346-2,Fibrex casement window,3,4,3,4
"53-1/2"" x 59-1/2""",53.5,59.5,100CD2350-2,Fibrex casement window,3,4,3,4
"53-1/2"" x 65-1/2""",53.5,65.5,100CD2356-2,Fibrex casement window,3,4,3,4
"53-1/2"" x 71-1/2""",53.5,71.5,100CD2360-2,Fibrex casement window,3,4,3,4
"59-1/2"" x 23-1/2""",59.5,23.5,100CD2620-2,Fibrex casement window,3,2,3,2
"59-1/2"" x 29-1/2""",59.5,29.5,100CD2626-2,Fibrex casement window,3,2,3,2
"59-1/2"" x 35-1/2""",59.5,35.5,100CD2630-2,Fibrex casement window,3,3,3,3
"59-1/2"" x 41-1/2""",59.5,41.5,100CD2636-2,Fibrex casement window,3,3,3,3
"59-1/2"" x 47-1/2""",59.5,47.5,100CD2640-2,Fibrex casement window,3,4,3,4
"59-1/2"" x 53-1/2""",59.5,53.5,100CD2646-2,Fibrex casement window,3,4,3,4
"59-1/2"" x 59-1/2""",59.5,59.5,100CD2650-2,Fibrex casement window,3,4,3,4
"59-1/2"" x 65-1/2""",59.5,65.5,100CD2656-2,Fibrex casement window,3,4,3,4
"59-1/2"" x 71-1/2""",59.5,71.5,100CD2660-2,Fibrex casement window,3,4,3,4
"65-1/2"" x 23-1/2""",65.5,23.5,100CD2920-2,Fibrex casement window,3,2,3,2
"65-1/2"" x 29-1/2""",65.5,29.5,100CD2926-2,Fibrex casement window,3,2,3,2
"65-1/2"" x 35-1/2""",65.5,35.5,100CD2930-2,Fibrex casement window,3,3,3,3
"65-1/2"" x 41-1/2""",65.5,41.5,100CD2936-2,Fibrex casement window,3,3,3,3
"65-1/2"" x 47-1/2""",65.5,47.5,100CD2940-2,Fibrex casement window,3,4,3,4
"65-1/2"" x 53-1/2""",65.5,53.5,100CD2946-2,Fibrex casement window,3,4,3,4
"65-1/2"" x 59-1/2""",65.5,59.5,100CD2950-2,Fibrex casement window,3,4,3,4
"65-1/2"" x 65-1/2""",65.5,65.5,100CD2956-2,Fibrex casement window,3,4,3,4
"65-1/2"" x 71-1/2""",65.5,71.5,100CD2960-2,Fibrex casement window,3,4,3,4
"71-1/2"" x 23-1/2""",71.5,23.5,100CD3020-2,Fibrex casement window,3,2,3,2
"71-1/2"" x 29-1/2""",71.5,29.5,100CD3026-2,Fibrex casement window,3,2,3,2
"71-1/2"" x 35-1/2""",71.5,35.5,100CD3030-2,Fibrex casement window,3,3,3,3
"71-1/2"" x 41-1/2""",71.5,41.5,100CD3036-2,Fibrex casement window,3,3,3,3
"71-1/2"" x 47-1/2""",71.5,47.5,100CD3040-2,Fibrex casement window,3,4,3,4
"71-1/2"" x 53-1/2""",71.5,53.5,100CD3046-2,Fibrex casement window,3,4,3,4
"71-1/2"" x 59-1/2""",71.5,59.5,100CD3050-2,Fibrex casement window,3,4,3,4
"71-1/2"" x 65-1/2""",71.5,65.5,100CD3056-2,Fibrex casement window,3,4,3,4
"71-1/2"" x 71-1/2""",71.5,71.5,100CD3060-2,Fibrex casement window,3,4,3,4
