,Width##LENGTH##INCHES,Height##LENGTH##INCHES,Designation##OTHER##,Type Comments##OTHER##,. . Lights Wide##OTHER##,. . Lights High Bottom Sash##OTHER##,. . Lights High Top Sash##OTHER##,Fractional Lights Wide##OTHER##,Fractional Lights High##OTHER##,XPanelBottom##LENGTH##INCHES
"23-1/2"" x 47-1/2""",23.5,47.5,100AST2020/2020,Fibrex awning window,2,2,2,2,2,21.90625
"23-1/2"" x 59-1/2""",23.5,59.5,100AST2026/2026,Fibrex awning window,2,2,2,2,2,27.90625
"23-1/2"" x 71-1/2""A",23.5,71.5,100AST2030/2030,Fibrex awning window,2,3,3,2,3,33.90625
"23-1/2"" x 71-1/2""B",23.5,71.5,100AST2040/2020,Fibrex awning window,2,2,4,2,2,21.90625
"23-1/2"" x 83-1/2""A",23.5,83.5,100AST2040/2030,Fibrex awning window,2,3,4,2,3,33.90625
"23-1/2"" x 83-1/2""B",23.5,83.5,100AST2050/2020,Fibrex awning window,2,2,4,2,2,21.90625
"23-1/2"" x 95-1/2""",23.5,95.5,100AST2050/2030,Fibrex awning window,2,3,4,2,3,33.90625
"29-1/2"" x 47-1/2""",29.5,47.5,100AST2620/2620,Fibrex awning window,3,2,2,3,2,21.90625
"29-1/2"" x 59-1/2""",29.5,59.5,100AST2626/2626,Fibrex awning window,3,2,2,3,2,27.90625
"29-1/2"" x 71-1/2""A",29.5,71.5,100AST2630/2630,Fibrex awning window,3,3,3,3,3,33.90625
"29-1/2"" x 71-1/2""B",29.5,71.5,100AST2640/2620,Fibrex awning window,3,2,4,3,2,21.90625
"29-1/2"" x 83-1/2""A",29.5,83.5,100AST2640/2630,Fibrex awning window,3,3,4,3,3,33.90625
"29-1/2"" x 83-1/2""B",29.5,83.5,100AST2650/2620,Fibrex awning window,3,2,4,3,2,21.90625
"29-1/2"" x 95-1/2""",29.5,95.5,100AST2650/2630,Fibrex awning window,3,3,4,3,3,33.90625
"35-1/2"" x 47-1/2""",35.5,47.5,100AST3020/3020,Fibrex awning window,3,2,2,3,2,21.90625
"35-1/2"" x 59-1/2""",35.5,59.5,100AST3026/3026,Fibrex awning window,3,2,2,3,2,27.90625
"35-1/2"" x 71-1/2""A",35.5,71.5,100AST3030/3030,Fibrex awning window,3,3,3,3,3,33.90625
"35-1/2"" x 71-1/2""B",35.5,71.5,100AST3040/3020,Fibrex awning window,3,2,4,3,2,21.90625
"35-1/2"" x 83-1/2""A",35.5,83.5,100AST3040/3030,Fibrex awning window,3,3,4,3,3,33.90625
"35-1/2"" x 83-1/2""B",35.5,83.5,100AST3050/3020,Fibrex awning window,3,2,4,3,2,21.90625
"35-1/2"" x 95-1/2""",35.5,95.5,100AST3050/3030,Fibrex awning window,3,3,4,3,3,33.90625
"41-1/2"" x 47-1/2""",41.5,47.5,100AST3620/3620,Fibrex awning window,4,2,2,4,2,21.90625
"41-1/2"" x 59-1/2""",41.5,59.5,100AST3626/3626,Fibrex awning window,4,2,2,4,2,27.90625
"41-1/2"" x 71-1/2""A",41.5,71.5,100AST3630/3630,Fibrex awning window,4,3,3,4,3,33.90625
"41-1/2"" x 71-1/2""B",41.5,71.5,100AST3640/3620,Fibrex awning window,4,2,4,4,2,21.90625
"41-1/2"" x 83-1/2""A",41.5,83.5,100AST3640/3630,Fibrex awning window,4,3,4,4,3,33.90625
"41-1/2"" x 83-1/2""B",41.5,83.5,100AST3650/3620,Fibrex awning window,4,2,4,4,2,21.90625
"41-1/2"" x 95-1/2""",41.5,95.5,100AST3650/3630,Fibrex awning window,4,3,4,4,3,33.90625
"47-1/2"" x 47-1/2""",47.5,47.5,100AST4020/4020,Fibrex awning window,4,2,2,4,2,21.90625
"47-1/2"" x 59-1/2""",47.5,59.5,100AST4026/4026,Fibrex awning window,4,2,2,4,2,27.90625
"47-1/2"" x 71-1/2""A",47.5,71.5,100AST4030/4030,Fibrex awning window,4,3,3,4,3,33.90625
"47-1/2"" x 71-1/2""B",47.5,71.5,100AST4040/4020,Fibrex awning window,4,2,4,4,2,21.90625
"47-1/2"" x 83-1/2""A",47.5,83.5,100AST4040/4030,Fibrex awning window,4,3,4,4,3,33.90625
"47-1/2"" x 83-1/2""B",47.5,83.5,100AST4050/4020,Fibrex awning window,4,2,4,4,2,21.90625
"47-1/2"" x 95-1/2""",47.5,95.5,100AST4050/4030,Fibrex awning window,4,3,4,4,3,33.90625
